(module user:FBG484 (layer F.Cu) (tedit 51FA56CB)
  (fp_text reference FBG484 (at 7.00024 -1.99898) (layer F.SilkS)
    (effects (font (thickness 0.3048)))
  )
  (fp_text value VAL** (at 2.99974 22.9997) (layer F.SilkS)
    (effects (font (thickness 0.3048)))
  )
  (pad A1 smd circle (at -0.00254 0) (size 0.59944 0.59944) (layers F.Cu F.Paste F.Mask))
  (pad A2 smd circle (at 0.99822 0) (size 0.59944 0.59944) (layers F.Cu F.Paste))
  (pad A3 smd circle (at 1.99644 0) (size 0.59944 0.59944) (layers F.Cu F.Paste))
  (pad A4 smd circle (at 2.9972 0) (size 0.59944 0.59944) (layers F.Cu F.Paste))
  (pad A5 smd circle (at 3.99796 0) (size 0.59944 0.59944) (layers F.Cu F.Paste))
  (pad A6 smd circle (at 4.99618 0) (size 0.59944 0.59944) (layers F.Cu F.Paste))
  (pad A7 smd circle (at 5.99694 0) (size 0.59944 0.59944) (layers F.Cu F.Paste))
  (pad A8 smd circle (at 6.9977 0) (size 0.59944 0.59944) (layers F.Cu F.Paste))
  (pad A9 smd circle (at 7.99592 0) (size 0.59944 0.59944) (layers F.Cu F.Paste))
  (pad A10 smd circle (at 8.99668 0) (size 0.59944 0.59944) (layers F.Cu F.Paste))
  (pad A11 smd circle (at 9.99744 0) (size 0.59944 0.59944) (layers F.Cu F.Paste))
  (pad A12 smd circle (at 10.9982 0) (size 0.59944 0.59944) (layers F.Cu F.Paste))
  (pad A13 smd circle (at 11.99642 0) (size 0.59944 0.59944) (layers F.Cu F.Paste))
  (pad A14 smd circle (at 12.99718 0) (size 0.59944 0.59944) (layers F.Cu F.Paste))
  (pad A15 smd circle (at 13.99794 0) (size 0.59944 0.59944) (layers F.Cu F.Paste))
  (pad A16 smd circle (at 14.99616 0) (size 0.59944 0.59944) (layers F.Cu F.Paste))
  (pad A17 smd circle (at 15.99692 0) (size 0.59944 0.59944) (layers F.Cu F.Paste))
  (pad A18 smd circle (at 16.99768 0) (size 0.59944 0.59944) (layers F.Cu F.Paste))
  (pad A19 smd circle (at 17.99844 0) (size 0.59944 0.59944) (layers F.Cu F.Paste))
  (pad A20 smd circle (at 18.99666 0) (size 0.59944 0.59944) (layers F.Cu F.Paste))
  (pad A21 smd circle (at 19.99742 0) (size 0.59944 0.59944) (layers F.Cu F.Paste))
  (pad A22 smd circle (at 20.99818 0) (size 0.59944 0.59944) (layers F.Cu F.Paste))
  (pad B1 smd circle (at -0.00254 1.00076) (size 0.59944 0.59944) (layers F.Cu F.Paste))
  (pad B2 smd circle (at 0.99822 1.00076) (size 0.59944 0.59944) (layers F.Cu F.Paste))
  (pad B3 smd circle (at 1.99644 1.00076) (size 0.59944 0.59944) (layers F.Cu F.Paste))
  (pad B4 smd circle (at 2.9972 1.00076) (size 0.59944 0.59944) (layers F.Cu F.Paste))
  (pad B5 smd circle (at 3.99796 1.00076) (size 0.59944 0.59944) (layers F.Cu F.Paste))
  (pad B6 smd circle (at 4.99618 1.00076) (size 0.59944 0.59944) (layers F.Cu F.Paste))
  (pad B7 smd circle (at 5.99694 1.00076) (size 0.59944 0.59944) (layers F.Cu F.Paste))
  (pad B8 smd circle (at 6.9977 1.00076) (size 0.59944 0.59944) (layers F.Cu F.Paste))
  (pad B9 smd circle (at 7.99592 1.00076) (size 0.59944 0.59944) (layers F.Cu F.Paste))
  (pad B10 smd circle (at 8.99668 1.00076) (size 0.59944 0.59944) (layers F.Cu F.Paste))
  (pad B11 smd circle (at 9.99744 1.00076) (size 0.59944 0.59944) (layers F.Cu F.Paste))
  (pad B12 smd circle (at 10.9982 1.00076) (size 0.59944 0.59944) (layers F.Cu F.Paste))
  (pad B13 smd circle (at 11.99642 1.00076) (size 0.59944 0.59944) (layers F.Cu F.Paste))
  (pad B14 smd circle (at 12.99718 1.00076) (size 0.59944 0.59944) (layers F.Cu F.Paste))
  (pad B15 smd circle (at 13.99794 1.00076) (size 0.59944 0.59944) (layers F.Cu F.Paste))
  (pad B16 smd circle (at 14.99616 1.00076) (size 0.59944 0.59944) (layers F.Cu F.Paste))
  (pad B17 smd circle (at 15.99692 1.00076) (size 0.59944 0.59944) (layers F.Cu F.Paste))
  (pad B18 smd circle (at 16.99768 1.00076) (size 0.59944 0.59944) (layers F.Cu F.Paste))
  (pad B19 smd circle (at 17.99844 1.00076) (size 0.59944 0.59944) (layers F.Cu F.Paste))
  (pad B20 smd circle (at 18.99666 1.00076) (size 0.59944 0.59944) (layers F.Cu F.Paste))
  (pad B21 smd circle (at 19.99742 1.00076) (size 0.59944 0.59944) (layers F.Cu F.Paste))
  (pad B22 smd circle (at 20.99818 1.00076) (size 0.59944 0.59944) (layers F.Cu F.Paste))
  (pad C1 smd circle (at -0.00254 1.99898) (size 0.59944 0.59944) (layers F.Cu F.Paste))
  (pad D1 smd circle (at -0.00254 2.99974) (size 0.59944 0.59944) (layers F.Cu F.Paste))
  (pad E1 smd circle (at -0.00254 4.0005) (size 0.59944 0.59944) (layers F.Cu F.Paste))
  (pad F1 smd circle (at -0.00254 4.99872) (size 0.59944 0.59944) (layers F.Cu F.Paste))
  (pad G1 smd circle (at -0.00254 5.99948) (size 0.59944 0.59944) (layers F.Cu F.Paste))
  (pad H1 smd circle (at -0.00254 7.00024) (size 0.59944 0.59944) (layers F.Cu F.Paste))
  (pad J1 smd circle (at -0.00254 7.99846) (size 0.59944 0.59944) (layers F.Cu F.Paste))
  (pad K1 smd circle (at -0.00254 8.99922) (size 0.59944 0.59944) (layers F.Cu F.Paste))
  (pad L1 smd circle (at -0.00254 9.99998) (size 0.59944 0.59944) (layers F.Cu F.Paste))
  (pad M1 smd circle (at -0.00254 11.00074) (size 0.59944 0.59944) (layers F.Cu F.Paste))
  (pad N1 smd circle (at -0.00254 11.99896) (size 0.59944 0.59944) (layers F.Cu F.Paste))
  (pad P1 smd circle (at -0.00254 13.00226) (size 0.59944 0.59944) (layers F.Cu F.Paste))
  (pad R1 smd circle (at -0.00254 14.00048) (size 0.59944 0.59944) (layers F.Cu F.Paste))
  (pad T1 smd circle (at -0.00254 14.9987) (size 0.59944 0.59944) (layers F.Cu F.Paste))
  (pad U1 smd circle (at -0.00254 15.99946) (size 0.59944 0.59944) (layers F.Cu F.Paste))
  (pad V1 smd circle (at -0.00254 17.00022) (size 0.59944 0.59944) (layers F.Cu F.Paste))
  (pad W1 smd circle (at -0.00254 18.00098) (size 0.59944 0.59944) (layers F.Cu F.Paste))
  (pad Y1 smd circle (at -0.00254 18.9992) (size 0.59944 0.59944) (layers F.Cu F.Paste))
  (pad AA1 smd circle (at -0.00254 19.99996) (size 0.59944 0.59944) (layers F.Cu F.Paste))
  (pad AB1 smd circle (at -0.00254 21.00072) (size 0.59944 0.59944) (layers F.Cu F.Paste))
  (pad AB2 smd circle (at 0.99822 21.00072) (size 0.59944 0.59944) (layers F.Cu F.Paste))
  (pad AB3 smd circle (at 1.99644 21.00072) (size 0.59944 0.59944) (layers F.Cu F.Paste))
  (pad AB4 smd circle (at 2.9972 21.00072) (size 0.59944 0.59944) (layers F.Cu F.Paste))
  (pad AB5 smd circle (at 3.99796 21.00072) (size 0.59944 0.59944) (layers F.Cu F.Paste))
  (pad AB6 smd circle (at 4.99618 21.00072) (size 0.59944 0.59944) (layers F.Cu F.Paste))
  (pad AB7 smd circle (at 5.99694 21.00072) (size 0.59944 0.59944) (layers F.Cu F.Paste))
  (pad AB8 smd circle (at 6.9977 21.00072) (size 0.59944 0.59944) (layers F.Cu F.Paste))
  (pad AB9 smd circle (at 7.99592 21.00072) (size 0.59944 0.59944) (layers F.Cu F.Paste))
  (pad AB10 smd circle (at 8.99668 21.00072) (size 0.59944 0.59944) (layers F.Cu F.Paste))
  (pad AB11 smd circle (at 9.99744 21.00072) (size 0.59944 0.59944) (layers F.Cu F.Paste))
  (pad AB12 smd circle (at 10.9982 21.00072) (size 0.59944 0.59944) (layers F.Cu F.Paste))
  (pad AB13 smd circle (at 11.99642 21.00072) (size 0.59944 0.59944) (layers F.Cu F.Paste))
  (pad AB14 smd circle (at 12.99718 21.00072) (size 0.59944 0.59944) (layers F.Cu F.Paste))
  (pad AB15 smd circle (at 13.99794 21.00072) (size 0.59944 0.59944) (layers F.Cu F.Paste))
  (pad AB16 smd circle (at 14.99616 21.00072) (size 0.59944 0.59944) (layers F.Cu F.Paste))
  (pad AB17 smd circle (at 15.99692 21.00072) (size 0.59944 0.59944) (layers F.Cu F.Paste))
  (pad AB18 smd circle (at 16.99768 21.00072) (size 0.59944 0.59944) (layers F.Cu F.Paste))
  (pad AB19 smd circle (at 17.99844 21.00072) (size 0.59944 0.59944) (layers F.Cu F.Paste))
  (pad AB20 smd circle (at 18.99666 21.00072) (size 0.59944 0.59944) (layers F.Cu F.Paste))
  (pad AB21 smd circle (at 19.99742 21.00072) (size 0.59944 0.59944) (layers F.Cu F.Paste))
  (pad AB22 smd circle (at 20.99818 21.00072) (size 0.59944 0.59944) (layers F.Cu F.Paste))
  (pad AA2 smd circle (at 0.99822 19.99996) (size 0.59944 0.59944) (layers F.Cu F.Paste))
  (pad AA3 smd circle (at 1.99644 19.99996) (size 0.59944 0.59944) (layers F.Cu F.Paste))
  (pad AA4 smd circle (at 2.9972 19.99996) (size 0.59944 0.59944) (layers F.Cu F.Paste))
  (pad AA5 smd circle (at 3.99796 19.99996) (size 0.59944 0.59944) (layers F.Cu F.Paste))
  (pad AA6 smd circle (at 4.99618 19.99996) (size 0.59944 0.59944) (layers F.Cu F.Paste))
  (pad AA7 smd circle (at 5.99694 19.99996) (size 0.59944 0.59944) (layers F.Cu F.Paste))
  (pad AA8 smd circle (at 6.9977 19.99996) (size 0.59944 0.59944) (layers F.Cu F.Paste))
  (pad AA9 smd circle (at 7.99592 19.99996) (size 0.59944 0.59944) (layers F.Cu F.Paste))
  (pad AA10 smd circle (at 8.99668 19.99996) (size 0.59944 0.59944) (layers F.Cu F.Paste))
  (pad AA11 smd circle (at 9.99744 19.99996) (size 0.59944 0.59944) (layers F.Cu F.Paste))
  (pad AA12 smd circle (at 10.9982 19.99996) (size 0.59944 0.59944) (layers F.Cu F.Paste))
  (pad AA13 smd circle (at 11.99642 19.99996) (size 0.59944 0.59944) (layers F.Cu F.Paste))
  (pad AA14 smd circle (at 12.99718 19.99996) (size 0.59944 0.59944) (layers F.Cu F.Paste))
  (pad AA15 smd circle (at 13.99794 19.99996) (size 0.59944 0.59944) (layers F.Cu F.Paste))
  (pad AA16 smd circle (at 14.99616 19.99996) (size 0.59944 0.59944) (layers F.Cu F.Paste))
  (pad AA17 smd circle (at 15.99692 19.99996) (size 0.59944 0.59944) (layers F.Cu F.Paste))
  (pad AA18 smd circle (at 16.99768 19.99996) (size 0.59944 0.59944) (layers F.Cu F.Paste))
  (pad AA19 smd circle (at 17.99844 19.99996) (size 0.59944 0.59944) (layers F.Cu F.Paste))
  (pad AA20 smd circle (at 18.99666 19.99996) (size 0.59944 0.59944) (layers F.Cu F.Paste))
  (pad AA21 smd circle (at 19.99742 19.99996) (size 0.59944 0.59944) (layers F.Cu F.Paste))
  (pad AA22 smd circle (at 20.99818 19.99996) (size 0.59944 0.59944) (layers F.Cu F.Paste))
  (pad Y2 smd circle (at 0.99822 18.9992) (size 0.59944 0.59944) (layers F.Cu F.Paste))
  (pad Y3 smd circle (at 1.99644 18.9992) (size 0.59944 0.59944) (layers F.Cu F.Paste))
  (pad Y4 smd circle (at 2.9972 18.9992) (size 0.59944 0.59944) (layers F.Cu F.Paste))
  (pad Y5 smd circle (at 3.99796 18.9992) (size 0.59944 0.59944) (layers F.Cu F.Paste))
  (pad Y6 smd circle (at 4.99618 18.9992) (size 0.59944 0.59944) (layers F.Cu F.Paste))
  (pad Y7 smd circle (at 5.99694 18.9992) (size 0.59944 0.59944) (layers F.Cu F.Paste))
  (pad Y8 smd circle (at 6.9977 18.9992) (size 0.59944 0.59944) (layers F.Cu F.Paste))
  (pad Y9 smd circle (at 7.99592 18.9992) (size 0.59944 0.59944) (layers F.Cu F.Paste))
  (pad Y10 smd circle (at 8.99668 18.9992) (size 0.59944 0.59944) (layers F.Cu F.Paste))
  (pad Y11 smd circle (at 9.99744 18.9992) (size 0.59944 0.59944) (layers F.Cu F.Paste))
  (pad Y12 smd circle (at 10.9982 18.9992) (size 0.59944 0.59944) (layers F.Cu F.Paste))
  (pad Y13 smd circle (at 11.99642 18.9992) (size 0.59944 0.59944) (layers F.Cu F.Paste))
  (pad Y14 smd circle (at 12.99718 18.9992) (size 0.59944 0.59944) (layers F.Cu F.Paste))
  (pad Y15 smd circle (at 13.99794 18.9992) (size 0.59944 0.59944) (layers F.Cu F.Paste))
  (pad Y16 smd circle (at 14.99616 18.9992) (size 0.59944 0.59944) (layers F.Cu F.Paste))
  (pad Y17 smd circle (at 15.99692 18.9992) (size 0.59944 0.59944) (layers F.Cu F.Paste))
  (pad Y18 smd circle (at 16.99768 18.9992) (size 0.59944 0.59944) (layers F.Cu F.Paste))
  (pad Y19 smd circle (at 17.99844 18.9992) (size 0.59944 0.59944) (layers F.Cu F.Paste))
  (pad Y20 smd circle (at 18.99666 18.9992) (size 0.59944 0.59944) (layers F.Cu F.Paste))
  (pad Y21 smd circle (at 19.99742 18.9992) (size 0.59944 0.59944) (layers F.Cu F.Paste))
  (pad Y22 smd circle (at 20.99818 18.9992) (size 0.59944 0.59944) (layers F.Cu F.Paste))
  (pad W2 smd circle (at 0.99822 18.00098) (size 0.59944 0.59944) (layers F.Cu F.Paste))
  (pad W3 smd circle (at 1.99644 18.00098) (size 0.59944 0.59944) (layers F.Cu F.Paste))
  (pad W4 smd circle (at 2.9972 18.00098) (size 0.59944 0.59944) (layers F.Cu F.Paste))
  (pad W5 smd circle (at 3.99796 18.00098) (size 0.59944 0.59944) (layers F.Cu F.Paste))
  (pad W6 smd circle (at 4.99618 18.00098) (size 0.59944 0.59944) (layers F.Cu F.Paste))
  (pad W7 smd circle (at 5.99694 18.00098) (size 0.59944 0.59944) (layers F.Cu F.Paste))
  (pad W8 smd circle (at 6.9977 18.00098) (size 0.59944 0.59944) (layers F.Cu F.Paste))
  (pad W9 smd circle (at 7.99592 18.00098) (size 0.59944 0.59944) (layers F.Cu F.Paste))
  (pad W10 smd circle (at 8.99668 18.00098) (size 0.59944 0.59944) (layers F.Cu F.Paste))
  (pad W11 smd circle (at 9.99744 18.00098) (size 0.59944 0.59944) (layers F.Cu F.Paste))
  (pad W12 smd circle (at 10.9982 18.00098) (size 0.59944 0.59944) (layers F.Cu F.Paste))
  (pad W13 smd circle (at 11.99642 18.00098) (size 0.59944 0.59944) (layers F.Cu F.Paste))
  (pad W14 smd circle (at 12.99718 18.00098) (size 0.59944 0.59944) (layers F.Cu F.Paste))
  (pad W15 smd circle (at 13.99794 18.00098) (size 0.59944 0.59944) (layers F.Cu F.Paste))
  (pad W16 smd circle (at 14.99616 18.00098) (size 0.59944 0.59944) (layers F.Cu F.Paste))
  (pad W17 smd circle (at 15.99692 18.00098) (size 0.59944 0.59944) (layers F.Cu F.Paste))
  (pad W18 smd circle (at 16.99768 18.00098) (size 0.59944 0.59944) (layers F.Cu F.Paste))
  (pad W19 smd circle (at 17.99844 18.00098) (size 0.59944 0.59944) (layers F.Cu F.Paste))
  (pad W20 smd circle (at 18.99666 18.00098) (size 0.59944 0.59944) (layers F.Cu F.Paste))
  (pad W21 smd circle (at 19.99742 18.00098) (size 0.59944 0.59944) (layers F.Cu F.Paste))
  (pad W22 smd circle (at 20.99818 18.00098) (size 0.59944 0.59944) (layers F.Cu F.Paste))
  (pad V2 smd circle (at 0.99822 17.00022) (size 0.59944 0.59944) (layers F.Cu F.Paste))
  (pad V3 smd circle (at 1.99644 17.00022) (size 0.59944 0.59944) (layers F.Cu F.Paste))
  (pad V4 smd circle (at 2.9972 17.00022) (size 0.59944 0.59944) (layers F.Cu F.Paste))
  (pad V5 smd circle (at 3.99796 17.00022) (size 0.59944 0.59944) (layers F.Cu F.Paste))
  (pad V6 smd circle (at 4.99618 17.00022) (size 0.59944 0.59944) (layers F.Cu F.Paste))
  (pad V7 smd circle (at 5.99694 17.00022) (size 0.59944 0.59944) (layers F.Cu F.Paste))
  (pad V8 smd circle (at 6.9977 17.00022) (size 0.59944 0.59944) (layers F.Cu F.Paste))
  (pad V9 smd circle (at 7.99592 17.00022) (size 0.59944 0.59944) (layers F.Cu F.Paste))
  (pad V10 smd circle (at 8.99668 17.00022) (size 0.59944 0.59944) (layers F.Cu F.Paste))
  (pad V11 smd circle (at 9.99744 17.00022) (size 0.59944 0.59944) (layers F.Cu F.Paste))
  (pad V12 smd circle (at 10.9982 17.00022) (size 0.59944 0.59944) (layers F.Cu F.Paste))
  (pad V13 smd circle (at 11.99642 17.00022) (size 0.59944 0.59944) (layers F.Cu F.Paste))
  (pad V14 smd circle (at 12.99718 17.00022) (size 0.59944 0.59944) (layers F.Cu F.Paste))
  (pad V15 smd circle (at 13.99794 17.00022) (size 0.59944 0.59944) (layers F.Cu F.Paste))
  (pad V16 smd circle (at 14.99616 17.00022) (size 0.59944 0.59944) (layers F.Cu F.Paste))
  (pad V17 smd circle (at 15.99692 17.00022) (size 0.59944 0.59944) (layers F.Cu F.Paste))
  (pad V18 smd circle (at 16.99768 17.00022) (size 0.59944 0.59944) (layers F.Cu F.Paste))
  (pad V19 smd circle (at 17.99844 17.00022) (size 0.59944 0.59944) (layers F.Cu F.Paste))
  (pad V20 smd circle (at 18.99666 17.00022) (size 0.59944 0.59944) (layers F.Cu F.Paste))
  (pad V21 smd circle (at 19.99742 17.00022) (size 0.59944 0.59944) (layers F.Cu F.Paste))
  (pad V22 smd circle (at 20.99818 17.00022) (size 0.59944 0.59944) (layers F.Cu F.Paste))
  (pad C2 smd circle (at 0.99822 1.99898) (size 0.59944 0.59944) (layers F.Cu F.Paste))
  (pad C3 smd circle (at 1.99644 1.99898) (size 0.59944 0.59944) (layers F.Cu F.Paste))
  (pad C4 smd circle (at 2.9972 1.99898) (size 0.59944 0.59944) (layers F.Cu F.Paste))
  (pad C5 smd circle (at 3.99796 1.99898) (size 0.59944 0.59944) (layers F.Cu F.Paste))
  (pad C6 smd circle (at 4.99618 1.99898) (size 0.59944 0.59944) (layers F.Cu F.Paste))
  (pad C7 smd circle (at 5.99694 1.99898) (size 0.59944 0.59944) (layers F.Cu F.Paste))
  (pad C8 smd circle (at 6.9977 1.99898) (size 0.59944 0.59944) (layers F.Cu F.Paste))
  (pad C9 smd circle (at 7.99592 1.99898) (size 0.59944 0.59944) (layers F.Cu F.Paste))
  (pad C10 smd circle (at 8.99668 1.99898) (size 0.59944 0.59944) (layers F.Cu F.Paste))
  (pad C11 smd circle (at 9.99744 1.99898) (size 0.59944 0.59944) (layers F.Cu F.Paste))
  (pad C12 smd circle (at 10.9982 1.99898) (size 0.59944 0.59944) (layers F.Cu F.Paste))
  (pad C13 smd circle (at 11.99642 1.99898) (size 0.59944 0.59944) (layers F.Cu F.Paste))
  (pad C14 smd circle (at 12.99718 1.99898) (size 0.59944 0.59944) (layers F.Cu F.Paste))
  (pad C15 smd circle (at 13.99794 1.99898) (size 0.59944 0.59944) (layers F.Cu F.Paste))
  (pad C16 smd circle (at 14.99616 1.99898) (size 0.59944 0.59944) (layers F.Cu F.Paste))
  (pad C17 smd circle (at 15.99692 1.99898) (size 0.59944 0.59944) (layers F.Cu F.Paste))
  (pad C18 smd circle (at 16.99768 1.99898) (size 0.59944 0.59944) (layers F.Cu F.Paste))
  (pad C19 smd circle (at 17.99844 1.99898) (size 0.59944 0.59944) (layers F.Cu F.Paste))
  (pad C20 smd circle (at 18.99666 1.99898) (size 0.59944 0.59944) (layers F.Cu F.Paste))
  (pad C21 smd circle (at 19.99742 1.99898) (size 0.59944 0.59944) (layers F.Cu F.Paste))
  (pad C22 smd circle (at 20.99818 1.99898) (size 0.59944 0.59944) (layers F.Cu F.Paste))
  (pad D2 smd circle (at 0.99822 2.99974) (size 0.59944 0.59944) (layers F.Cu F.Paste))
  (pad D3 smd circle (at 1.99644 2.99974) (size 0.59944 0.59944) (layers F.Cu F.Paste))
  (pad D4 smd circle (at 2.9972 2.99974) (size 0.59944 0.59944) (layers F.Cu F.Paste))
  (pad D5 smd circle (at 3.99796 2.99974) (size 0.59944 0.59944) (layers F.Cu F.Paste))
  (pad D6 smd circle (at 4.99618 2.99974) (size 0.59944 0.59944) (layers F.Cu F.Paste))
  (pad D7 smd circle (at 5.99694 2.99974) (size 0.59944 0.59944) (layers F.Cu F.Paste))
  (pad D8 smd circle (at 6.9977 2.99974) (size 0.59944 0.59944) (layers F.Cu F.Paste))
  (pad D9 smd circle (at 7.99592 2.99974) (size 0.59944 0.59944) (layers F.Cu F.Paste))
  (pad D10 smd circle (at 8.99668 2.99974) (size 0.59944 0.59944) (layers F.Cu F.Paste))
  (pad D11 smd circle (at 9.99744 2.99974) (size 0.59944 0.59944) (layers F.Cu F.Paste))
  (pad D12 smd circle (at 10.9982 2.99974) (size 0.59944 0.59944) (layers F.Cu F.Paste))
  (pad D13 smd circle (at 11.99642 2.99974) (size 0.59944 0.59944) (layers F.Cu F.Paste))
  (pad D14 smd circle (at 12.99718 2.99974) (size 0.59944 0.59944) (layers F.Cu F.Paste))
  (pad D15 smd circle (at 13.99794 2.99974) (size 0.59944 0.59944) (layers F.Cu F.Paste))
  (pad D16 smd circle (at 14.99616 2.99974) (size 0.59944 0.59944) (layers F.Cu F.Paste))
  (pad D17 smd circle (at 15.99692 2.99974) (size 0.59944 0.59944) (layers F.Cu F.Paste))
  (pad D18 smd circle (at 16.99768 2.99974) (size 0.59944 0.59944) (layers F.Cu F.Paste))
  (pad D19 smd circle (at 17.99844 2.99974) (size 0.59944 0.59944) (layers F.Cu F.Paste))
  (pad D20 smd circle (at 18.99666 2.99974) (size 0.59944 0.59944) (layers F.Cu F.Paste))
  (pad D21 smd circle (at 19.99742 2.99974) (size 0.59944 0.59944) (layers F.Cu F.Paste))
  (pad D22 smd circle (at 20.99818 2.99974) (size 0.59944 0.59944) (layers F.Cu F.Paste))
  (pad E2 smd circle (at 0.99822 4.0005) (size 0.59944 0.59944) (layers F.Cu F.Paste))
  (pad E3 smd circle (at 1.99644 4.0005) (size 0.59944 0.59944) (layers F.Cu F.Paste))
  (pad E4 smd circle (at 2.9972 4.0005) (size 0.59944 0.59944) (layers F.Cu F.Paste))
  (pad E5 smd circle (at 3.99796 4.0005) (size 0.59944 0.59944) (layers F.Cu F.Paste))
  (pad E6 smd circle (at 4.99618 4.0005) (size 0.59944 0.59944) (layers F.Cu F.Paste))
  (pad E7 smd circle (at 5.99694 4.0005) (size 0.59944 0.59944) (layers F.Cu F.Paste))
  (pad E8 smd circle (at 6.9977 4.0005) (size 0.59944 0.59944) (layers F.Cu F.Paste))
  (pad E9 smd circle (at 7.99592 4.0005) (size 0.59944 0.59944) (layers F.Cu F.Paste))
  (pad E10 smd circle (at 8.99668 4.0005) (size 0.59944 0.59944) (layers F.Cu F.Paste))
  (pad E11 smd circle (at 9.99744 4.0005) (size 0.59944 0.59944) (layers F.Cu F.Paste))
  (pad E12 smd circle (at 10.9982 4.0005) (size 0.59944 0.59944) (layers F.Cu F.Paste))
  (pad E13 smd circle (at 11.99642 4.0005) (size 0.59944 0.59944) (layers F.Cu F.Paste))
  (pad E14 smd circle (at 12.99718 4.0005) (size 0.59944 0.59944) (layers F.Cu F.Paste))
  (pad E15 smd circle (at 13.99794 4.0005) (size 0.59944 0.59944) (layers F.Cu F.Paste))
  (pad E16 smd circle (at 14.99616 4.0005) (size 0.59944 0.59944) (layers F.Cu F.Paste))
  (pad E17 smd circle (at 15.99692 4.0005) (size 0.59944 0.59944) (layers F.Cu F.Paste))
  (pad E18 smd circle (at 16.99768 4.0005) (size 0.59944 0.59944) (layers F.Cu F.Paste))
  (pad E19 smd circle (at 17.99844 4.0005) (size 0.59944 0.59944) (layers F.Cu F.Paste))
  (pad E20 smd circle (at 18.99666 4.0005) (size 0.59944 0.59944) (layers F.Cu F.Paste))
  (pad E21 smd circle (at 19.99742 4.0005) (size 0.59944 0.59944) (layers F.Cu F.Paste))
  (pad E22 smd circle (at 20.99818 4.0005) (size 0.59944 0.59944) (layers F.Cu F.Paste))
  (pad F2 smd circle (at 0.99822 4.99872) (size 0.59944 0.59944) (layers F.Cu F.Paste))
  (pad F3 smd circle (at 1.99644 4.99872) (size 0.59944 0.59944) (layers F.Cu F.Paste))
  (pad F4 smd circle (at 2.9972 4.99872) (size 0.59944 0.59944) (layers F.Cu F.Paste))
  (pad F5 smd circle (at 3.99796 4.99872) (size 0.59944 0.59944) (layers F.Cu F.Paste))
  (pad F6 smd circle (at 4.99618 4.99872) (size 0.59944 0.59944) (layers F.Cu F.Paste))
  (pad F7 smd circle (at 5.99694 4.99872) (size 0.59944 0.59944) (layers F.Cu F.Paste))
  (pad F8 smd circle (at 6.9977 4.99872) (size 0.59944 0.59944) (layers F.Cu F.Paste))
  (pad F9 smd circle (at 7.99592 4.99872) (size 0.59944 0.59944) (layers F.Cu F.Paste))
  (pad F10 smd circle (at 8.99668 4.99872) (size 0.59944 0.59944) (layers F.Cu F.Paste))
  (pad F11 smd circle (at 9.99744 4.99872) (size 0.59944 0.59944) (layers F.Cu F.Paste))
  (pad F12 smd circle (at 10.9982 4.99872) (size 0.59944 0.59944) (layers F.Cu F.Paste))
  (pad F13 smd circle (at 11.99642 4.99872) (size 0.59944 0.59944) (layers F.Cu F.Paste))
  (pad F14 smd circle (at 12.99718 4.99872) (size 0.59944 0.59944) (layers F.Cu F.Paste))
  (pad F15 smd circle (at 13.99794 4.99872) (size 0.59944 0.59944) (layers F.Cu F.Paste))
  (pad F16 smd circle (at 14.99616 4.99872) (size 0.59944 0.59944) (layers F.Cu F.Paste))
  (pad F17 smd circle (at 15.99692 4.99872) (size 0.59944 0.59944) (layers F.Cu F.Paste))
  (pad F18 smd circle (at 16.99768 4.99872) (size 0.59944 0.59944) (layers F.Cu F.Paste))
  (pad F19 smd circle (at 17.99844 4.99872) (size 0.59944 0.59944) (layers F.Cu F.Paste))
  (pad F20 smd circle (at 18.99666 4.99872) (size 0.59944 0.59944) (layers F.Cu F.Paste))
  (pad F21 smd circle (at 19.99742 4.99872) (size 0.59944 0.59944) (layers F.Cu F.Paste))
  (pad F22 smd circle (at 20.99818 4.99872) (size 0.59944 0.59944) (layers F.Cu F.Paste))
  (pad G2 smd circle (at 0.99822 5.99948) (size 0.59944 0.59944) (layers F.Cu F.Paste))
  (pad G3 smd circle (at 1.99644 5.99948) (size 0.59944 0.59944) (layers F.Cu F.Paste))
  (pad G4 smd circle (at 2.9972 5.99948) (size 0.59944 0.59944) (layers F.Cu F.Paste))
  (pad G5 smd circle (at 3.99796 5.99948) (size 0.59944 0.59944) (layers F.Cu F.Paste))
  (pad G6 smd circle (at 4.99618 5.99948) (size 0.59944 0.59944) (layers F.Cu F.Paste))
  (pad G7 smd circle (at 5.99694 5.99948) (size 0.59944 0.59944) (layers F.Cu F.Paste))
  (pad G8 smd circle (at 6.9977 5.99948) (size 0.59944 0.59944) (layers F.Cu F.Paste))
  (pad G9 smd circle (at 7.99592 5.99948) (size 0.59944 0.59944) (layers F.Cu F.Paste))
  (pad G10 smd circle (at 8.99668 5.99948) (size 0.59944 0.59944) (layers F.Cu F.Paste))
  (pad G11 smd circle (at 9.99744 5.99948) (size 0.59944 0.59944) (layers F.Cu F.Paste))
  (pad G12 smd circle (at 10.9982 5.99948) (size 0.59944 0.59944) (layers F.Cu F.Paste))
  (pad G13 smd circle (at 11.99642 5.99948) (size 0.59944 0.59944) (layers F.Cu F.Paste))
  (pad G14 smd circle (at 12.99718 5.99948) (size 0.59944 0.59944) (layers F.Cu F.Paste))
  (pad G15 smd circle (at 13.99794 5.99948) (size 0.59944 0.59944) (layers F.Cu F.Paste))
  (pad G16 smd circle (at 14.99616 5.99948) (size 0.59944 0.59944) (layers F.Cu F.Paste))
  (pad G17 smd circle (at 15.99692 5.99948) (size 0.59944 0.59944) (layers F.Cu F.Paste))
  (pad G18 smd circle (at 16.99768 5.99948) (size 0.59944 0.59944) (layers F.Cu F.Paste))
  (pad G19 smd circle (at 17.99844 5.99948) (size 0.59944 0.59944) (layers F.Cu F.Paste))
  (pad G20 smd circle (at 18.99666 5.99948) (size 0.59944 0.59944) (layers F.Cu F.Paste))
  (pad G21 smd circle (at 19.99742 5.99948) (size 0.59944 0.59944) (layers F.Cu F.Paste))
  (pad G22 smd circle (at 20.99818 5.99948) (size 0.59944 0.59944) (layers F.Cu F.Paste))
  (pad H2 smd circle (at 0.99822 7.00024) (size 0.59944 0.59944) (layers F.Cu F.Paste))
  (pad H3 smd circle (at 1.99644 7.00024) (size 0.59944 0.59944) (layers F.Cu F.Paste))
  (pad H4 smd circle (at 2.9972 7.00024) (size 0.59944 0.59944) (layers F.Cu F.Paste))
  (pad H5 smd circle (at 3.99796 7.00024) (size 0.59944 0.59944) (layers F.Cu F.Paste))
  (pad H6 smd circle (at 4.99618 7.00024) (size 0.59944 0.59944) (layers F.Cu F.Paste))
  (pad H7 smd circle (at 5.99694 7.00024) (size 0.59944 0.59944) (layers F.Cu F.Paste))
  (pad H8 smd circle (at 6.9977 7.00024) (size 0.59944 0.59944) (layers F.Cu F.Paste))
  (pad H9 smd circle (at 7.99592 7.00024) (size 0.59944 0.59944) (layers F.Cu F.Paste))
  (pad H10 smd circle (at 8.99668 7.00024) (size 0.59944 0.59944) (layers F.Cu F.Paste))
  (pad H11 smd circle (at 9.99744 7.00024) (size 0.59944 0.59944) (layers F.Cu F.Paste))
  (pad H12 smd circle (at 10.9982 7.00024) (size 0.59944 0.59944) (layers F.Cu F.Paste))
  (pad H13 smd circle (at 11.99642 7.00024) (size 0.59944 0.59944) (layers F.Cu F.Paste))
  (pad H14 smd circle (at 12.99718 7.00024) (size 0.59944 0.59944) (layers F.Cu F.Paste))
  (pad H15 smd circle (at 13.99794 7.00024) (size 0.59944 0.59944) (layers F.Cu F.Paste))
  (pad H16 smd circle (at 14.99616 7.00024) (size 0.59944 0.59944) (layers F.Cu F.Paste))
  (pad H17 smd circle (at 15.99692 7.00024) (size 0.59944 0.59944) (layers F.Cu F.Paste))
  (pad H18 smd circle (at 16.99768 7.00024) (size 0.59944 0.59944) (layers F.Cu F.Paste))
  (pad H19 smd circle (at 17.99844 7.00024) (size 0.59944 0.59944) (layers F.Cu F.Paste))
  (pad H20 smd circle (at 18.99666 7.00024) (size 0.59944 0.59944) (layers F.Cu F.Paste))
  (pad H21 smd circle (at 19.99742 7.00024) (size 0.59944 0.59944) (layers F.Cu F.Paste))
  (pad H22 smd circle (at 20.99818 7.00024) (size 0.59944 0.59944) (layers F.Cu F.Paste))
  (pad J2 smd circle (at 0.99822 7.99846) (size 0.59944 0.59944) (layers F.Cu F.Paste))
  (pad J3 smd circle (at 1.99644 7.99846) (size 0.59944 0.59944) (layers F.Cu F.Paste))
  (pad J4 smd circle (at 2.9972 7.99846) (size 0.59944 0.59944) (layers F.Cu F.Paste))
  (pad J5 smd circle (at 3.99796 7.99846) (size 0.59944 0.59944) (layers F.Cu F.Paste))
  (pad J6 smd circle (at 4.99618 7.99846) (size 0.59944 0.59944) (layers F.Cu F.Paste))
  (pad J7 smd circle (at 5.99694 7.99846) (size 0.59944 0.59944) (layers F.Cu F.Paste))
  (pad J8 smd circle (at 6.9977 7.99846) (size 0.59944 0.59944) (layers F.Cu F.Paste))
  (pad J9 smd circle (at 7.99592 7.99846) (size 0.59944 0.59944) (layers F.Cu F.Paste))
  (pad J10 smd circle (at 8.99668 7.99846) (size 0.59944 0.59944) (layers F.Cu F.Paste))
  (pad J11 smd circle (at 9.99744 7.99846) (size 0.59944 0.59944) (layers F.Cu F.Paste))
  (pad J12 smd circle (at 10.9982 7.99846) (size 0.59944 0.59944) (layers F.Cu F.Paste))
  (pad J13 smd circle (at 11.99642 7.99846) (size 0.59944 0.59944) (layers F.Cu F.Paste))
  (pad J14 smd circle (at 12.99718 7.99846) (size 0.59944 0.59944) (layers F.Cu F.Paste))
  (pad J15 smd circle (at 13.99794 7.99846) (size 0.59944 0.59944) (layers F.Cu F.Paste))
  (pad J16 smd circle (at 14.99616 7.99846) (size 0.59944 0.59944) (layers F.Cu F.Paste))
  (pad J17 smd circle (at 15.99692 7.99846) (size 0.59944 0.59944) (layers F.Cu F.Paste))
  (pad J18 smd circle (at 16.99768 7.99846) (size 0.59944 0.59944) (layers F.Cu F.Paste))
  (pad J19 smd circle (at 17.99844 7.99846) (size 0.59944 0.59944) (layers F.Cu F.Paste))
  (pad J20 smd circle (at 18.99666 7.99846) (size 0.59944 0.59944) (layers F.Cu F.Paste))
  (pad J21 smd circle (at 19.99742 7.99846) (size 0.59944 0.59944) (layers F.Cu F.Paste))
  (pad J22 smd circle (at 20.99818 7.99846) (size 0.59944 0.59944) (layers F.Cu F.Paste))
  (pad K2 smd circle (at 0.99822 8.99922) (size 0.59944 0.59944) (layers F.Cu F.Paste))
  (pad K3 smd circle (at 1.99644 8.99922) (size 0.59944 0.59944) (layers F.Cu F.Paste))
  (pad K4 smd circle (at 2.9972 8.99922) (size 0.59944 0.59944) (layers F.Cu F.Paste))
  (pad K5 smd circle (at 3.99796 8.99922) (size 0.59944 0.59944) (layers F.Cu F.Paste))
  (pad K6 smd circle (at 4.99618 8.99922) (size 0.59944 0.59944) (layers F.Cu F.Paste))
  (pad K7 smd circle (at 5.99694 8.99922) (size 0.59944 0.59944) (layers F.Cu F.Paste))
  (pad K8 smd circle (at 6.9977 8.99922) (size 0.59944 0.59944) (layers F.Cu F.Paste))
  (pad K9 smd circle (at 7.99592 8.99922) (size 0.59944 0.59944) (layers F.Cu F.Paste))
  (pad K10 smd circle (at 8.99668 8.99922) (size 0.59944 0.59944) (layers F.Cu F.Paste))
  (pad K11 smd circle (at 9.99744 8.99922) (size 0.59944 0.59944) (layers F.Cu F.Paste))
  (pad K12 smd circle (at 10.9982 8.99922) (size 0.59944 0.59944) (layers F.Cu F.Paste))
  (pad K13 smd circle (at 11.99642 8.99922) (size 0.59944 0.59944) (layers F.Cu F.Paste))
  (pad K14 smd circle (at 12.99718 8.99922) (size 0.59944 0.59944) (layers F.Cu F.Paste))
  (pad K15 smd circle (at 13.99794 8.99922) (size 0.59944 0.59944) (layers F.Cu F.Paste))
  (pad K16 smd circle (at 14.99616 8.99922) (size 0.59944 0.59944) (layers F.Cu F.Paste))
  (pad K17 smd circle (at 15.99692 8.99922) (size 0.59944 0.59944) (layers F.Cu F.Paste))
  (pad K18 smd circle (at 16.99768 8.99922) (size 0.59944 0.59944) (layers F.Cu F.Paste))
  (pad K19 smd circle (at 17.99844 8.99922) (size 0.59944 0.59944) (layers F.Cu F.Paste))
  (pad K20 smd circle (at 18.99666 8.99922) (size 0.59944 0.59944) (layers F.Cu F.Paste))
  (pad K21 smd circle (at 19.99742 8.99922) (size 0.59944 0.59944) (layers F.Cu F.Paste))
  (pad K22 smd circle (at 20.99818 8.99922) (size 0.59944 0.59944) (layers F.Cu F.Paste))
  (pad L2 smd circle (at 0.99822 9.99998) (size 0.59944 0.59944) (layers F.Cu F.Paste))
  (pad L3 smd circle (at 1.99644 9.99998) (size 0.59944 0.59944) (layers F.Cu F.Paste))
  (pad L4 smd circle (at 2.9972 9.99998) (size 0.59944 0.59944) (layers F.Cu F.Paste))
  (pad L5 smd circle (at 3.99796 9.99998) (size 0.59944 0.59944) (layers F.Cu F.Paste))
  (pad L6 smd circle (at 4.99618 9.99998) (size 0.59944 0.59944) (layers F.Cu F.Paste))
  (pad L7 smd circle (at 5.99694 9.99998) (size 0.59944 0.59944) (layers F.Cu F.Paste))
  (pad L8 smd circle (at 6.9977 9.99998) (size 0.59944 0.59944) (layers F.Cu F.Paste))
  (pad L9 smd circle (at 7.99592 9.99998) (size 0.59944 0.59944) (layers F.Cu F.Paste))
  (pad L10 smd circle (at 8.99668 9.99998) (size 0.59944 0.59944) (layers F.Cu F.Paste))
  (pad L11 smd circle (at 9.99744 9.99998) (size 0.59944 0.59944) (layers F.Cu F.Paste))
  (pad L12 smd circle (at 10.9982 9.99998) (size 0.59944 0.59944) (layers F.Cu F.Paste))
  (pad L13 smd circle (at 11.99642 9.99998) (size 0.59944 0.59944) (layers F.Cu F.Paste))
  (pad L14 smd circle (at 12.99718 9.99998) (size 0.59944 0.59944) (layers F.Cu F.Paste))
  (pad L15 smd circle (at 13.99794 9.99998) (size 0.59944 0.59944) (layers F.Cu F.Paste))
  (pad L16 smd circle (at 14.99616 9.99998) (size 0.59944 0.59944) (layers F.Cu F.Paste))
  (pad L17 smd circle (at 15.99692 9.99998) (size 0.59944 0.59944) (layers F.Cu F.Paste))
  (pad L18 smd circle (at 16.99768 9.99998) (size 0.59944 0.59944) (layers F.Cu F.Paste))
  (pad L19 smd circle (at 17.99844 9.99998) (size 0.59944 0.59944) (layers F.Cu F.Paste))
  (pad L20 smd circle (at 18.99666 9.99998) (size 0.59944 0.59944) (layers F.Cu F.Paste))
  (pad L21 smd circle (at 19.99742 9.99998) (size 0.59944 0.59944) (layers F.Cu F.Paste))
  (pad L22 smd circle (at 20.99818 9.99998) (size 0.59944 0.59944) (layers F.Cu F.Paste))
  (pad M2 smd circle (at 0.99822 11.00074) (size 0.59944 0.59944) (layers F.Cu F.Paste))
  (pad M3 smd circle (at 1.99644 11.00074) (size 0.59944 0.59944) (layers F.Cu F.Paste))
  (pad M4 smd circle (at 2.9972 11.00074) (size 0.59944 0.59944) (layers F.Cu F.Paste))
  (pad M5 smd circle (at 3.99796 11.00074) (size 0.59944 0.59944) (layers F.Cu F.Paste))
  (pad M6 smd circle (at 4.99618 11.00074) (size 0.59944 0.59944) (layers F.Cu F.Paste))
  (pad M7 smd circle (at 5.99694 11.00074) (size 0.59944 0.59944) (layers F.Cu F.Paste))
  (pad M8 smd circle (at 6.9977 11.00074) (size 0.59944 0.59944) (layers F.Cu F.Paste))
  (pad M9 smd circle (at 7.99592 11.00074) (size 0.59944 0.59944) (layers F.Cu F.Paste))
  (pad M10 smd circle (at 8.99668 11.00074) (size 0.59944 0.59944) (layers F.Cu F.Paste))
  (pad M11 smd circle (at 9.99744 11.00074) (size 0.59944 0.59944) (layers F.Cu F.Paste))
  (pad M12 smd circle (at 10.9982 11.00074) (size 0.59944 0.59944) (layers F.Cu F.Paste))
  (pad M13 smd circle (at 11.99642 11.00074) (size 0.59944 0.59944) (layers F.Cu F.Paste))
  (pad M14 smd circle (at 12.99718 11.00074) (size 0.59944 0.59944) (layers F.Cu F.Paste))
  (pad M15 smd circle (at 13.99794 11.00074) (size 0.59944 0.59944) (layers F.Cu F.Paste))
  (pad M16 smd circle (at 14.99616 11.00074) (size 0.59944 0.59944) (layers F.Cu F.Paste))
  (pad M17 smd circle (at 15.99692 11.00074) (size 0.59944 0.59944) (layers F.Cu F.Paste))
  (pad M18 smd circle (at 16.99768 11.00074) (size 0.59944 0.59944) (layers F.Cu F.Paste))
  (pad M19 smd circle (at 17.99844 11.00074) (size 0.59944 0.59944) (layers F.Cu F.Paste))
  (pad M20 smd circle (at 18.99666 11.00074) (size 0.59944 0.59944) (layers F.Cu F.Paste))
  (pad M21 smd circle (at 19.99742 11.00074) (size 0.59944 0.59944) (layers F.Cu F.Paste))
  (pad M22 smd circle (at 20.99818 11.00074) (size 0.59944 0.59944) (layers F.Cu F.Paste))
  (pad N2 smd circle (at 0.99822 11.99896) (size 0.59944 0.59944) (layers F.Cu F.Paste))
  (pad N3 smd circle (at 1.99644 11.99896) (size 0.59944 0.59944) (layers F.Cu F.Paste))
  (pad N4 smd circle (at 2.9972 11.99896) (size 0.59944 0.59944) (layers F.Cu F.Paste))
  (pad N5 smd circle (at 3.99796 11.99896) (size 0.59944 0.59944) (layers F.Cu F.Paste))
  (pad N6 smd circle (at 4.99618 11.99896) (size 0.59944 0.59944) (layers F.Cu F.Paste))
  (pad N7 smd circle (at 5.99694 11.99896) (size 0.59944 0.59944) (layers F.Cu F.Paste))
  (pad N8 smd circle (at 6.9977 11.99896) (size 0.59944 0.59944) (layers F.Cu F.Paste))
  (pad N9 smd circle (at 7.99592 11.99896) (size 0.59944 0.59944) (layers F.Cu F.Paste))
  (pad N10 smd circle (at 8.99668 11.99896) (size 0.59944 0.59944) (layers F.Cu F.Paste))
  (pad N11 smd circle (at 9.99744 11.99896) (size 0.59944 0.59944) (layers F.Cu F.Paste))
  (pad N12 smd circle (at 10.9982 11.99896) (size 0.59944 0.59944) (layers F.Cu F.Paste))
  (pad N13 smd circle (at 11.99642 11.99896) (size 0.59944 0.59944) (layers F.Cu F.Paste))
  (pad N14 smd circle (at 12.99718 11.99896) (size 0.59944 0.59944) (layers F.Cu F.Paste))
  (pad N15 smd circle (at 13.99794 11.99896) (size 0.59944 0.59944) (layers F.Cu F.Paste))
  (pad N16 smd circle (at 14.99616 11.99896) (size 0.59944 0.59944) (layers F.Cu F.Paste))
  (pad N17 smd circle (at 15.99692 11.99896) (size 0.59944 0.59944) (layers F.Cu F.Paste))
  (pad N18 smd circle (at 16.99768 11.99896) (size 0.59944 0.59944) (layers F.Cu F.Paste))
  (pad N19 smd circle (at 17.99844 11.99896) (size 0.59944 0.59944) (layers F.Cu F.Paste))
  (pad N20 smd circle (at 18.99666 11.99896) (size 0.59944 0.59944) (layers F.Cu F.Paste))
  (pad N21 smd circle (at 19.99742 11.99896) (size 0.59944 0.59944) (layers F.Cu F.Paste))
  (pad N22 smd circle (at 20.99818 11.99896) (size 0.59944 0.59944) (layers F.Cu F.Paste))
  (pad P2 smd circle (at 0.99822 12.99972) (size 0.59944 0.59944) (layers F.Cu F.Paste))
  (pad P3 smd circle (at 1.99644 12.99972) (size 0.59944 0.59944) (layers F.Cu F.Paste))
  (pad P4 smd circle (at 2.9972 12.99972) (size 0.59944 0.59944) (layers F.Cu F.Paste))
  (pad P5 smd circle (at 3.99796 12.99972) (size 0.59944 0.59944) (layers F.Cu F.Paste))
  (pad P6 smd circle (at 4.99618 12.99972) (size 0.59944 0.59944) (layers F.Cu F.Paste))
  (pad P7 smd circle (at 5.99694 12.99972) (size 0.59944 0.59944) (layers F.Cu F.Paste))
  (pad P8 smd circle (at 6.9977 12.99972) (size 0.59944 0.59944) (layers F.Cu F.Paste))
  (pad P9 smd circle (at 7.99592 12.99972) (size 0.59944 0.59944) (layers F.Cu F.Paste))
  (pad P10 smd circle (at 8.99668 12.99972) (size 0.59944 0.59944) (layers F.Cu F.Paste))
  (pad P11 smd circle (at 9.99744 12.99972) (size 0.59944 0.59944) (layers F.Cu F.Paste))
  (pad P12 smd circle (at 10.9982 12.99972) (size 0.59944 0.59944) (layers F.Cu F.Paste))
  (pad P13 smd circle (at 11.99642 12.99972) (size 0.59944 0.59944) (layers F.Cu F.Paste))
  (pad P14 smd circle (at 12.99718 12.99972) (size 0.59944 0.59944) (layers F.Cu F.Paste))
  (pad P15 smd circle (at 13.99794 12.99972) (size 0.59944 0.59944) (layers F.Cu F.Paste))
  (pad P16 smd circle (at 14.99616 12.99972) (size 0.59944 0.59944) (layers F.Cu F.Paste))
  (pad P17 smd circle (at 15.99692 12.99972) (size 0.59944 0.59944) (layers F.Cu F.Paste))
  (pad P18 smd circle (at 16.99768 12.99972) (size 0.59944 0.59944) (layers F.Cu F.Paste))
  (pad P19 smd circle (at 17.99844 12.99972) (size 0.59944 0.59944) (layers F.Cu F.Paste))
  (pad P20 smd circle (at 18.99666 12.99972) (size 0.59944 0.59944) (layers F.Cu F.Paste))
  (pad P21 smd circle (at 19.99742 12.99972) (size 0.59944 0.59944) (layers F.Cu F.Paste))
  (pad P22 smd circle (at 20.99818 12.99972) (size 0.59944 0.59944) (layers F.Cu F.Paste))
  (pad R2 smd circle (at 0.99822 14.00048) (size 0.59944 0.59944) (layers F.Cu F.Paste))
  (pad R3 smd circle (at 1.99644 14.00048) (size 0.59944 0.59944) (layers F.Cu F.Paste))
  (pad R4 smd circle (at 2.9972 14.00048) (size 0.59944 0.59944) (layers F.Cu F.Paste))
  (pad R5 smd circle (at 3.99796 14.00048) (size 0.59944 0.59944) (layers F.Cu F.Paste))
  (pad R6 smd circle (at 4.99618 14.00048) (size 0.59944 0.59944) (layers F.Cu F.Paste))
  (pad R7 smd circle (at 5.99694 14.00048) (size 0.59944 0.59944) (layers F.Cu F.Paste))
  (pad R8 smd circle (at 6.9977 14.00048) (size 0.59944 0.59944) (layers F.Cu F.Paste))
  (pad R9 smd circle (at 7.99592 14.00048) (size 0.59944 0.59944) (layers F.Cu F.Paste))
  (pad R10 smd circle (at 8.99668 14.00048) (size 0.59944 0.59944) (layers F.Cu F.Paste))
  (pad R11 smd circle (at 9.99744 14.00048) (size 0.59944 0.59944) (layers F.Cu F.Paste))
  (pad R12 smd circle (at 10.9982 14.00048) (size 0.59944 0.59944) (layers F.Cu F.Paste))
  (pad R13 smd circle (at 11.99642 14.00048) (size 0.59944 0.59944) (layers F.Cu F.Paste))
  (pad R14 smd circle (at 12.99718 14.00048) (size 0.59944 0.59944) (layers F.Cu F.Paste))
  (pad R15 smd circle (at 13.99794 14.00048) (size 0.59944 0.59944) (layers F.Cu F.Paste))
  (pad R16 smd circle (at 14.99616 14.00048) (size 0.59944 0.59944) (layers F.Cu F.Paste))
  (pad R17 smd circle (at 15.99692 14.00048) (size 0.59944 0.59944) (layers F.Cu F.Paste))
  (pad R18 smd circle (at 16.99768 14.00048) (size 0.59944 0.59944) (layers F.Cu F.Paste))
  (pad R19 smd circle (at 17.99844 14.00048) (size 0.59944 0.59944) (layers F.Cu F.Paste))
  (pad R20 smd circle (at 18.99666 14.00048) (size 0.59944 0.59944) (layers F.Cu F.Paste))
  (pad R21 smd circle (at 19.99742 14.00048) (size 0.59944 0.59944) (layers F.Cu F.Paste))
  (pad R22 smd circle (at 20.99818 14.00048) (size 0.59944 0.59944) (layers F.Cu F.Paste))
  (pad T2 smd circle (at 0.99822 14.9987) (size 0.59944 0.59944) (layers F.Cu F.Paste))
  (pad T3 smd circle (at 1.99644 14.9987) (size 0.59944 0.59944) (layers F.Cu F.Paste))
  (pad T4 smd circle (at 2.9972 14.9987) (size 0.59944 0.59944) (layers F.Cu F.Paste))
  (pad T5 smd circle (at 3.99796 14.9987) (size 0.59944 0.59944) (layers F.Cu F.Paste))
  (pad T6 smd circle (at 4.99618 14.9987) (size 0.59944 0.59944) (layers F.Cu F.Paste))
  (pad T7 smd circle (at 5.99694 14.9987) (size 0.59944 0.59944) (layers F.Cu F.Paste))
  (pad T8 smd circle (at 6.9977 14.9987) (size 0.59944 0.59944) (layers F.Cu F.Paste))
  (pad T9 smd circle (at 7.99592 14.9987) (size 0.59944 0.59944) (layers F.Cu F.Paste))
  (pad T10 smd circle (at 8.99668 14.9987) (size 0.59944 0.59944) (layers F.Cu F.Paste))
  (pad T11 smd circle (at 9.99744 14.9987) (size 0.59944 0.59944) (layers F.Cu F.Paste))
  (pad T12 smd circle (at 10.9982 14.9987) (size 0.59944 0.59944) (layers F.Cu F.Paste))
  (pad T13 smd circle (at 11.99642 14.9987) (size 0.59944 0.59944) (layers F.Cu F.Paste))
  (pad T14 smd circle (at 12.99718 14.9987) (size 0.59944 0.59944) (layers F.Cu F.Paste))
  (pad T15 smd circle (at 13.99794 14.9987) (size 0.59944 0.59944) (layers F.Cu F.Paste))
  (pad T16 smd circle (at 14.99616 14.9987) (size 0.59944 0.59944) (layers F.Cu F.Paste))
  (pad T17 smd circle (at 15.99692 14.9987) (size 0.59944 0.59944) (layers F.Cu F.Paste))
  (pad T18 smd circle (at 16.99768 14.9987) (size 0.59944 0.59944) (layers F.Cu F.Paste))
  (pad T19 smd circle (at 17.99844 14.9987) (size 0.59944 0.59944) (layers F.Cu F.Paste))
  (pad T20 smd circle (at 18.99666 14.9987) (size 0.59944 0.59944) (layers F.Cu F.Paste))
  (pad T21 smd circle (at 19.99742 14.9987) (size 0.59944 0.59944) (layers F.Cu F.Paste))
  (pad T22 smd circle (at 20.99818 14.9987) (size 0.59944 0.59944) (layers F.Cu F.Paste))
  (pad U2 smd circle (at 0.99822 15.99946) (size 0.59944 0.59944) (layers F.Cu F.Paste))
  (pad U3 smd circle (at 1.99644 15.99946) (size 0.59944 0.59944) (layers F.Cu F.Paste))
  (pad U4 smd circle (at 2.9972 15.99946) (size 0.59944 0.59944) (layers F.Cu F.Paste))
  (pad U5 smd circle (at 3.99796 15.99946) (size 0.59944 0.59944) (layers F.Cu F.Paste))
  (pad U6 smd circle (at 4.99618 15.99946) (size 0.59944 0.59944) (layers F.Cu F.Paste))
  (pad U7 smd circle (at 5.99694 15.99946) (size 0.59944 0.59944) (layers F.Cu F.Paste))
  (pad U8 smd circle (at 6.9977 15.99946) (size 0.59944 0.59944) (layers F.Cu F.Paste))
  (pad U9 smd circle (at 7.99592 15.99946) (size 0.59944 0.59944) (layers F.Cu F.Paste))
  (pad U10 smd circle (at 8.99668 15.99946) (size 0.59944 0.59944) (layers F.Cu F.Paste))
  (pad U11 smd circle (at 9.99744 15.99946) (size 0.59944 0.59944) (layers F.Cu F.Paste))
  (pad U12 smd circle (at 10.9982 15.99946) (size 0.59944 0.59944) (layers F.Cu F.Paste))
  (pad U13 smd circle (at 11.99642 15.99946) (size 0.59944 0.59944) (layers F.Cu F.Paste))
  (pad U14 smd circle (at 12.99718 15.99946) (size 0.59944 0.59944) (layers F.Cu F.Paste))
  (pad U15 smd circle (at 13.99794 15.99946) (size 0.59944 0.59944) (layers F.Cu F.Paste))
  (pad U16 smd circle (at 14.99616 15.99946) (size 0.59944 0.59944) (layers F.Cu F.Paste))
  (pad U17 smd circle (at 15.99692 15.99946) (size 0.59944 0.59944) (layers F.Cu F.Paste))
  (pad U18 smd circle (at 16.99768 15.99946) (size 0.59944 0.59944) (layers F.Cu F.Paste))
  (pad U19 smd circle (at 17.99844 15.99946) (size 0.59944 0.59944) (layers F.Cu F.Paste))
  (pad U20 smd circle (at 18.99666 15.99946) (size 0.59944 0.59944) (layers F.Cu F.Paste))
  (pad U21 smd circle (at 19.99742 15.99946) (size 0.59944 0.59944) (layers F.Cu F.Paste))
  (pad U22 smd circle (at 20.99818 15.99946) (size 0.59944 0.59944) (layers F.Cu F.Paste))
)
