PCBNEW-LibModule-V1  2/7/2011 2:29:26 PM
$INDEX
TC2050_IDC
$EndINDEX
$MODULE TC2050_IDC
Po 0 0 0 15 4D4FD1F1 00000000 ~~
Li TC2050_IDC
Sc 00000000
AR /4BA218C6
Op 0 0 0
T0 0 0 394 276 0 67 N V 21 N"J"
T1 0 0 394 276 0 67 N V 21 N"tagCon"
DS -1497 -2107 -1192 -2107 30 21
DS -1192 -2107 -1192 -1625 30 21
DS -1497 -2107 -1802 -2107 30 21
DS -1802 -2107 -1802 -1625 30 21
DS 443 -2107 443 -1625 30 21
DS 748 -2107 443 -2107 30 21
DS 1053 -2107 1053 -1625 30 21
DS 748 -2107 1053 -2107 30 21
DS -1791 2106 -1791 1624 30 21
DS -1486 2106 -1791 2106 30 21
DS -1181 2106 -1181 1624 30 21
DS -1486 2106 -1181 2106 30 21
DS 806 2106 501 2106 30 21
DS 501 2106 501 1624 30 21
DS 806 2106 1111 2106 30 21
DS 1111 2106 1111 1624 30 21
DS -2125 1625 1875 1625 30 21
DS 1875 1625 1875 -1625 30 21
DS 1875 -1625 -2125 -1625 30 21
DS -2125 -1625 -2125 1625 30 21
DS -1000 -250 -1000 250 30 21
DS -1000 250 1000 250 30 21
DS 1000 250 1000 -250 30 21
DS 1000 -250 -1000 -250 30 21
DS -1000 -250 1000 250 30 21
DS 1000 250 1000 -250 30 21
DS 1000 -250 -1000 250 30 21
$PAD
Sh "1" C 310 310 0 0 0
Dr 0 0 0
At CONN N 00808000
Ne 0 ""
Po -1000 250
$EndPAD
$PAD
Sh "2" C 310 310 0 0 0
Dr 0 0 0
At CONN N 00808000
Ne 0 ""
Po -500 250
$EndPAD
$PAD
Sh "3" C 310 310 0 0 0
Dr 0 0 0
At CONN N 00808000
Ne 0 ""
Po 0 250
$EndPAD
$PAD
Sh "4" C 310 310 0 0 0
Dr 0 0 0
At CONN N 00808000
Ne 0 ""
Po 500 250
$EndPAD
$PAD
Sh "5" C 310 310 0 0 0
Dr 0 0 0
At CONN N 00808000
Ne 0 ""
Po 1000 250
$EndPAD
$PAD
Sh "6" C 310 310 0 0 0
Dr 0 0 0
At CONN N 00808000
Ne 0 ""
Po 1000 -250
$EndPAD
$PAD
Sh "7" C 310 310 0 0 0
Dr 0 0 0
At CONN N 00808000
Ne 0 ""
Po 500 -250
$EndPAD
$PAD
Sh "8" C 310 310 0 0 0
Dr 0 0 0
At CONN N 00808000
Ne 0 ""
Po 0 -250
$EndPAD
$PAD
Sh "9" C 310 310 0 0 0
Dr 0 0 0
At CONN N 00808000
Ne 0 ""
Po -500 -250
$EndPAD
$PAD
Sh "10" C 310 310 0 0 0
Dr 0 0 0
At CONN N 00808000
Ne 0 ""
Po -1000 -250
$EndPAD
$PAD
Sh "15" C 390 390 0 0 0
Dr 390 0 0
At STD N 00E0FFFF
Ne 0 ""
Po -1500 0
$EndPAD
$PAD
Sh "16" C 935 935 0 0 0
Dr 935 0 0
At STD N 00E0FFFF
Ne 0 ""
Po -1500 -1000
$EndPAD
$PAD
Sh "14" C 935 935 0 0 0
Dr 935 0 0
At STD N 00E0FFFF
Ne 0 ""
Po -1500 1000
$EndPAD
$PAD
Sh "17" C 935 935 0 0 0
Dr 935 0 0
At STD N 00E0FFFF
Ne 0 ""
Po 750 -1000
$EndPAD
$PAD
Sh "13" C 935 935 0 0 0
Dr 935 0 0
At STD N 00E0FFFF
Ne 0 ""
Po 750 1000
$EndPAD
$PAD
Sh "11" C 390 390 0 0 0
Dr 390 0 0
At STD N 00E0FFFF
Ne 0 ""
Po 1500 -400
$EndPAD
$PAD
Sh "12" C 390 390 0 0 0
Dr 390 0 0
At STD N 00E0FFFF
Ne 0 ""
Po 1500 400
$EndPAD
$EndMODULE  TC2050_IDC
$EndLIBRARY
